@startuml

'Copyright (c) 2018 Via Technology Ltd. All Rights Reserved.

'title Sphere Classes

set namespaceSeparator ::

namespace via::sphere {

   Arc3d *- "2" Point3d

   class Arc3d {
     - a_
     - pole_
     - length_
     ----
     + Arc3d()
     + Arc3d(a, b)
     ....
     + Point3d a()
     + Point3d pole()
     + double length()
     ....
     + Point3d b()
	 + double azimuth()
     ....
     + Point3d position(distance)
     + Point3d perp_position(Point3d, distance)
     ....
	 + double calculate_azimuth(Point3d)
     + double cross_track_distance(Point3d)
     + double along_track_distance(Point3d)
     + double closest_distance(Point3d)
     + double turn_angle(Point3d)
     ....
     bool operator==(Arc3d, Arc3d)
   }
   
   Point3d *-- Vector3d

   class Point3d {
     + Point3d()
     + Point3d(Vector3d)
	 + Point3d(x, y, z)
     ....
     + Vector3d p()
     + double x()
     + double y()
     + double z()
     
     + double abs()
	 + bool operator bool()
     + Point3d operator-()
     + bool operator==(Point3d, Point3d)
     ....
     double distance_radians(Point3d, Point3d)
	 Point3d global_Point3d(latitude, longitude)
	 double latitude(Point3d)
     double longitude(Point3d)
   }
   
   object Vector3d {
     double dot(Vector3d, Vector3d)
     Vector3d cross(Vector3d, Vector3d)
     double norm(Vector3d)
     double length(Vector3d)
     Vector3d normalize(Vector3d)
     ....
     Vector3d operator+(Vector3d, Vector3d)
     Vector3d operator-(Vector3d, Vector3d)
     Vector3d operator*(double, Vector3d)
     Vector3d operator*(Vector3d, double)
     Vector3d operator/(Vector3d, double)
     Vector3d operator-(Vector3d)
   }
   note left of Vector3d: std::array<double, 3>
}

@enduml