@startuml

'Copyright (c) 2018 Via Technology Ltd. All Rights Reserved.

'title Sphere Classes

set namespaceSeparator ::

namespace via::sphere {

   arc_functions o-- "*" Arc3d
   arc_functions o-- "*" Point3d

   object arc_functions {
     std::vector<Arc3d> calculate_Arc3ds(std::vector<Point3d>)
     ....
     std::vector<double> calculate_turn_angles(std::vector<Arc3d>)
     std::vector<double> calculate_xtds(Arc3d, std::vector<Point3d>)
     std::vector<double> calculate_atds(Arc3d, std::vector<Point3d>)
	 std::vector<Point3d> calculate_positions(Arc3d, std::vector<double>)
     std::vector<double> calculate_azimuths(Arc3d, std::vector<Point3d>)
     ....
     std::vector<double> calculate_closest_distances(Point3d, std::vector<Arc3d>)
   }
   
   point_functions o-- "*" Point3d

   object point_functions {
     std::vector<Point3d> calculate_global_Point3ds(latitudes, longitudes)
     std::vector<double> calculate_latitudes(std::vector<Point3d>)
     std::vector<double> calculate_longitudes(std::vector<Point3d>)
     std::vector<double> calculate_leg_lengths(std::vector<Point3d>)
     std::vector<double> calculate_distances(std::vector<Point3d>, Point3d)
   }
   
   Arc3d *- "2" Point3d

   class Arc3d {
     - a_
     - pole_
     - length_
     ----
     + Arc3d()
     + Arc3d(a, b)
     ....
     + Point3d a()
     + Point3d pole()
     + double length()
     ....
     + Point3d b()
	 + double azimuth()
     ....
     + Point3d position(distance)
     + Point3d perp_position(Point3d, distance)
     ....
	 + double calculate_azimuth(Point3d)
     + double cross_track_distance(Point3d)
     + double along_track_distance(Point3d)
     + double closest_distance(Point3d)
     + double turn_angle(Point3d)
     ....
     bool operator==(Arc3d, Arc3d)
   }

   class Point3d {
     + Point3d()
     + Point3d(Vector3d)
	 + Point3d(x, y, z)
     ....
     + Vector3d p()
     + double x()
     + double y()
     + double z()
     
     + double abs()
	 + bool operator bool()
     + Point3d operator-()
     + bool operator==(Point3d, Point3d)
     ....
     double distance_radians(Point3d, Point3d)
	 Point3d global_Point3d(latitude, longitude)
	 double latitude(Point3d)
     double longitude(Point3d)
   }

}

@enduml